\relax 
\babel@aux{english}{}
\babel@aux{english}{}
\babel@aux{english}{}
\babel@aux{english}{}
\babel@aux{english}{}
\babel@aux{english}{}
\babel@aux{english}{}
\babel@aux{english}{}
\babel@aux{english}{}
\babel@aux{english}{}
\babel@aux{english}{}
\babel@aux{english}{}
\babel@aux{english}{}
\babel@aux{english}{}
\babel@aux{english}{}
\babel@aux{english}{}
\babel@aux{english}{}
\babel@aux{english}{}
\babel@aux{english}{}
\babel@aux{english}{}
\babel@aux{english}{}
\babel@aux{english}{}
\babel@aux{english}{}
\babel@aux{english}{}
\babel@aux{english}{}
\babel@aux{english}{}
\babel@aux{english}{}
\babel@aux{english}{}
\babel@aux{english}{}
\babel@aux{english}{}
\babel@aux{english}{}
\babel@aux{english}{}
\babel@aux{english}{}
\babel@aux{english}{}
\babel@aux{english}{}
\babel@aux{english}{}
\babel@aux{english}{}
\babel@aux{english}{}
\newlabel{LastPage}{{}{2}}
\xdef\lastpage@lastpage{2}
\gdef\lastpage@lastpageHy{}
