\relax 
\babel@aux{UKenglish}{}
\babel@aux{UKenglish}{}
\@writefile{toc}{\contentsline {section}{\numberline {1}Motor Instructions}{2}}
\newlabel{list:first}{{1}{2}}
\@writefile{lol}{\contentsline {lstlisting}{\numberline {1}Declaring Variables}{2}}
\newlabel{list:second}{{2}{2}}
\@writefile{lol}{\contentsline {lstlisting}{\numberline {2}Setup Function}{2}}
\@writefile{toc}{\contentsline {subsection}{\numberline {1.1}Functions}{2}}
\newlabel{list:fourth}{{3}{2}}
\@writefile{lol}{\contentsline {lstlisting}{\numberline {3}Sending signals to the motor controller to power the motors}{2}}
\newlabel{list:fifth}{{4}{3}}
\@writefile{lol}{\contentsline {lstlisting}{\numberline {4}Loop Function}{3}}
\@writefile{toc}{\contentsline {subsection}{\numberline {1.2}Behaviours}{3}}
\newlabel{list:fifth}{{5}{3}}
\@writefile{lol}{\contentsline {lstlisting}{\numberline {5}Example Code}{3}}
\@writefile{toc}{\contentsline {section}{\numberline {2}Servo}{4}}
\@writefile{toc}{\contentsline {subsection}{\numberline {2.1}Hardware Required}{4}}
\@writefile{toc}{\contentsline {subsection}{\numberline {2.2}Circuit}{4}}
\@writefile{lof}{\contentsline {figure}{\numberline {1}{\ignorespaces Connecting a servo to an Arduino}}{4}}
\@writefile{toc}{\contentsline {subsection}{\numberline {2.3}Code}{5}}
\newlabel{list:sixth}{{6}{5}}
\@writefile{lol}{\contentsline {lstlisting}{\numberline {6}Importing an Arduino Library}{5}}
\newlabel{list:sixth}{{7}{5}}
\@writefile{lol}{\contentsline {lstlisting}{\numberline {7}Creating a servo object}{5}}
\newlabel{list:sixth}{{8}{5}}
\@writefile{lol}{\contentsline {lstlisting}{\numberline {8}Creating a storage variable}{5}}
\newlabel{list:eleventh}{{9}{5}}
\@writefile{lol}{\contentsline {lstlisting}{\numberline {9}Setup Function}{5}}
\newlabel{list:eleventh}{{10}{5}}
\@writefile{lol}{\contentsline {lstlisting}{\numberline {10}Loop Function and Example Code}{5}}
\@writefile{toc}{\contentsline {section}{\numberline {3}Light Dependant Resistors Instructions}{6}}
\@writefile{toc}{\contentsline {subsection}{\numberline {3.1}Hardware Required}{6}}
\@writefile{toc}{\contentsline {subsection}{\numberline {3.2}Circuit}{6}}
\@writefile{lof}{\contentsline {figure}{\numberline {2}{\ignorespaces Connecting a LDR sensor and LED to an Arduino via a bread-board}}{6}}
\@writefile{toc}{\contentsline {subsection}{\numberline {3.3}Code}{6}}
\newlabel{list:sixth}{{11}{7}}
\@writefile{lol}{\contentsline {lstlisting}{\numberline {11}Setting up data connection LDR as an input and LED as an output}{7}}
\newlabel{list:first}{{12}{7}}
\@writefile{lol}{\contentsline {lstlisting}{\numberline {12}reading and printing LDR values whilst lighting LED}{7}}
\newlabel{list:tenth}{{13}{7}}
\@writefile{lol}{\contentsline {lstlisting}{\numberline {13}Example Code}{7}}
\@writefile{toc}{\contentsline {subsection}{\numberline {3.4}Behaviours}{7}}
\@writefile{toc}{\contentsline {section}{\numberline {4}Ultrasonic Instructions}{8}}
\@writefile{toc}{\contentsline {subsection}{\numberline {4.1}Hardware Required}{8}}
\@writefile{toc}{\contentsline {subsection}{\numberline {4.2}Circuit}{8}}
\@writefile{lof}{\contentsline {figure}{\numberline {3}{\ignorespaces Connecting a Ultrasonic sensor to an Arduino}}{8}}
\@writefile{toc}{\contentsline {subsection}{\numberline {4.3}Sending out a pulse and timing it coming back}{9}}
\@writefile{toc}{\contentsline {subsection}{\numberline {4.4}Code}{9}}
\newlabel{list:eleventh}{{14}{9}}
\@writefile{lol}{\contentsline {lstlisting}{\numberline {14}Setup Function}{9}}
\newlabel{list:twelfth}{{15}{9}}
\@writefile{lol}{\contentsline {lstlisting}{\numberline {15}Loop Function}{9}}
\newlabel{list:thirteenth}{{16}{10}}
\@writefile{lol}{\contentsline {lstlisting}{\numberline {16}Example Output}{10}}
\@writefile{toc}{\contentsline {subsection}{\numberline {4.5}Going from a measurement of time to a measurement of distance}{10}}
\@writefile{toc}{\contentsline {subsection}{\numberline {4.6}Behaviours}{10}}
\newlabel{LastPage}{{}{10}}
\xdef\lastpage@lastpage{10}
\gdef\lastpage@lastpageHy{}
