\relax 
\providecommand\hyper@newdestlabel[2]{}
\providecommand\HyperFirstAtBeginDocument{\AtBeginDocument}
\HyperFirstAtBeginDocument{\ifx\hyper@anchor\@undefined
\global\let\oldcontentsline\contentsline
\gdef\contentsline#1#2#3#4{\oldcontentsline{#1}{#2}{#3}}
\global\let\oldnewlabel\newlabel
\gdef\newlabel#1#2{\newlabelxx{#1}#2}
\gdef\newlabelxx#1#2#3#4#5#6{\oldnewlabel{#1}{{#2}{#3}}}
\AtEndDocument{\ifx\hyper@anchor\@undefined
\let\contentsline\oldcontentsline
\let\newlabel\oldnewlabel
\fi}
\fi}
\global\let\hyper@last\relax 
\gdef\HyperFirstAtBeginDocument#1{#1}
\providecommand\HyField@AuxAddToFields[1]{}
\providecommand\HyField@AuxAddToCoFields[2]{}
\select@language{UKenglish}
\@writefile{toc}{\select@language{UKenglish}}
\@writefile{lof}{\select@language{UKenglish}}
\@writefile{lot}{\select@language{UKenglish}}
\select@language{UKenglish}
\@writefile{toc}{\select@language{UKenglish}}
\@writefile{lof}{\select@language{UKenglish}}
\@writefile{lot}{\select@language{UKenglish}}
\@writefile{toc}{\contentsline {section}{\numberline {1}Project Introduction}{2}{section.1}}
\@writefile{toc}{\contentsline {section}{\numberline {2}Raspberry Pi Start-up}{3}{section.2}}
\@writefile{toc}{\contentsline {section}{\numberline {3}What You\IeC {\textquoteright }ll Need}{3}{section.3}}
\@writefile{toc}{\contentsline {section}{\numberline {4}Set Up Your Raspberry Pi}{4}{section.4}}
\@writefile{toc}{\contentsline {section}{\numberline {5}How to install NOOBS on an SD card}{4}{section.5}}
\newlabel{LastPage}{{}{4}{}{page.4}{}}
\xdef\lastpage@lastpage{4}
\xdef\lastpage@lastpageHy{4}
