\relax 
\providecommand\hyper@newdestlabel[2]{}
\providecommand\HyperFirstAtBeginDocument{\AtBeginDocument}
\HyperFirstAtBeginDocument{\ifx\hyper@anchor\@undefined
\global\let\oldcontentsline\contentsline
\gdef\contentsline#1#2#3#4{\oldcontentsline{#1}{#2}{#3}}
\global\let\oldnewlabel\newlabel
\gdef\newlabel#1#2{\newlabelxx{#1}#2}
\gdef\newlabelxx#1#2#3#4#5#6{\oldnewlabel{#1}{{#2}{#3}}}
\AtEndDocument{\ifx\hyper@anchor\@undefined
\let\contentsline\oldcontentsline
\let\newlabel\oldnewlabel
\fi}
\fi}
\global\let\hyper@last\relax 
\gdef\HyperFirstAtBeginDocument#1{#1}
\providecommand\HyField@AuxAddToFields[1]{}
\providecommand\HyField@AuxAddToCoFields[2]{}
\babel@aux{english}{}
\babel@aux{english}{}
\babel@aux{english}{}
\babel@aux{english}{}
\babel@aux{english}{}
\babel@aux{english}{}
\providecommand*\caption@xref[2]{\@setref\relax\@undefined{#1}}
\newlabel{fig:sub1}{{1a}{1}{Braille Alphabet\newline https://www.royalblind.org/national-braille-week/about-braille/braille-facts\relax }{figure.caption.2}{}}
\newlabel{sub@fig:sub1}{{a}{1}{Braille Alphabet\newline https://www.royalblind.org/national-braille-week/about-braille/braille-facts\relax }{figure.caption.2}{}}
\newlabel{fig:gpio}{{1b}{1}{GPIO Layout\relax }{figure.caption.2}{}}
\newlabel{sub@fig:gpio}{{b}{1}{GPIO Layout\relax }{figure.caption.2}{}}
\newlabel{fig:test}{{\caption@xref {fig:test}{ on input line 61}}{1}{\cy {} \en {What is Braille?}}{figure.caption.2}{}}
\babel@aux{english}{}
\babel@aux{english}{}
\babel@aux{english}{}
\babel@aux{english}{}
\babel@aux{english}{}
\babel@aux{english}{}
\babel@aux{english}{}
\babel@aux{english}{}
\babel@aux{english}{}
\babel@aux{english}{}
\babel@aux{english}{}
\babel@aux{english}{}
\babel@aux{english}{}
\babel@aux{english}{}
\babel@aux{english}{}
\babel@aux{english}{}
\babel@aux{english}{}
\babel@aux{english}{}
\babel@aux{english}{}
\babel@aux{english}{}
\babel@aux{english}{}
\babel@aux{english}{}
\babel@aux{english}{}
\babel@aux{english}{}
\babel@aux{english}{}
\babel@aux{english}{}
\babel@aux{english}{}
\babel@aux{english}{}
\babel@aux{english}{}
\babel@aux{english}{}
\babel@aux{english}{}
\babel@aux{english}{}
\babel@aux{english}{}
\babel@aux{english}{}
\babel@aux{english}{}
\babel@aux{english}{}
\babel@aux{english}{}
\babel@aux{english}{}
\babel@aux{english}{}
\babel@aux{english}{}
\babel@aux{english}{}
\babel@aux{english}{}
\babel@aux{english}{}
\babel@aux{english}{}
\babel@aux{english}{}
\babel@aux{english}{}
\babel@aux{english}{}
\babel@aux{english}{}
\babel@aux{english}{}
\babel@aux{english}{}
\newlabel{LastPage}{{}{4}{}{page.4}{}}
\xdef\lastpage@lastpage{4}
\xdef\lastpage@lastpageHy{4}
