\relax 
\babel@aux{english}{}
\babel@aux{english}{}
\babel@aux{english}{}
\babel@aux{english}{}
\babel@aux{english}{}
\babel@aux{english}{}
\babel@aux{english}{}
\babel@aux{english}{}
\babel@aux{english}{}
\babel@aux{english}{}
\babel@aux{english}{}
\babel@aux{english}{}
\babel@aux{english}{}
\babel@aux{english}{}
\babel@aux{english}{}
\babel@aux{english}{}
\babel@aux{english}{}
\babel@aux{english}{}
\babel@aux{english}{}
\babel@aux{english}{}
\babel@aux{english}{}
\babel@aux{english}{}
\babel@aux{english}{}
\babel@aux{english}{}
\babel@aux{english}{}
\babel@aux{english}{}
\babel@aux{english}{}
\babel@aux{english}{}
\babel@aux{english}{}
\newlabel{defLeft}{{1}{3}}
\babel@aux{english}{}
\babel@aux{english}{}
\newlabel{pinLeft}{{2}{3}}
\babel@aux{english}{}
\babel@aux{english}{}
\newlabel{funcLeft}{{3}{3}}
\babel@aux{english}{}
\babel@aux{english}{}
\babel@aux{english}{}
\babel@aux{english}{}
\babel@aux{english}{}
\babel@aux{english}{}
\newlabel{leftLoop}{{4}{4}}
\babel@aux{english}{}
\babel@aux{english}{}
\babel@aux{english}{}
\babel@aux{english}{}
\newlabel{defRight}{{6}{4}}
\babel@aux{english}{}
\babel@aux{english}{}
\babel@aux{english}{}
\babel@aux{english}{}
\babel@aux{english}{}
\babel@aux{english}{}
\babel@aux{english}{}
\babel@aux{english}{}
\newlabel{LastPage}{{}{4}}
\xdef\lastpage@lastpage{4}
\gdef\lastpage@lastpageHy{}
