\relax 
\babel@aux{UKenglish}{}
\babel@aux{UKenglish}{}
\@writefile{toc}{\contentsline {section}{\numberline {1}Hardware Contents}{2}}
\@writefile{toc}{\contentsline {section}{\numberline {2}Control Systems}{3}}
\@writefile{toc}{\contentsline {subsection}{\numberline {2.1}Position Motor Controller}{3}}
\@writefile{toc}{\contentsline {subsection}{\numberline {2.2}Connecting the Motors}{4}}
\@writefile{toc}{\contentsline {subsection}{\numberline {2.3}Position the Arduino}{5}}
\@writefile{toc}{\contentsline {subsection}{\numberline {2.4}Connecting the Arduino and Motor Controller}{6}}
\@writefile{toc}{\contentsline {subsection}{\numberline {2.5}Power}{8}}
\@writefile{toc}{\contentsline {subsection}{\numberline {2.6}Mounting the Power Block}{9}}
\@writefile{toc}{\contentsline {subsection}{\numberline {2.7}Powering the Arduino}{10}}
\@writefile{toc}{\contentsline {subsection}{\numberline {2.8}Connecting the Battery}{11}}
\newlabel{LastPage}{{}{11}}
\xdef\lastpage@lastpage{11}
\gdef\lastpage@lastpageHy{}
